%YAML 1.1
%TAG !u! tag:unity3d.com,2011:
--- !u!1045 &1
EditorBuildSettings:
  m_ObjectHideFlags: 0
  serializedVersion: 2
  m_Scenes:
  - enabled: 1
    path: Assets/_Scenes/Welcome.unity
    guid: 732f1e42da781a0469f380744ccc4bef
  - enabled: 1
    path: Assets/_Scenes/Levels/Level01.unity
    guid: 572a6ac5973f20b4b81c6ee6217c6e4a
  - enabled: 1
    path: Assets/_Scenes/Credits.unity
    guid: c7d0d2399060bbc47a81b709fcdbd808
  m_configObjects: {}
